{
    "game_files": {
        "description": "Core assets needed to play the game.",
        "version": "18.0328",
        "checksum": "29e8cdc6e7679c89424f61fb9a5ecba46872d3322943e384306ade26cfff99fc"
    },
    "soundtrack": {
        "description": "Original soundtrack (based on Dreamcast version).",
        "version": "20.1008",
        "checksum": "0753af88c854b8f3be5568a50ccf904611add7239fc55cfffb736d8aaf9da50e"
    },
    "io_cars": {
        "description": "Additional cars created by the community. Used in regular I/O races.",
        "version": "20.1117",
        "checksum": "e88c06ba16d39bae318179d39736b213c76857e17677af475742c7ce3160ccb2"
    },
    "io_cars_bonus": {
        "description": "Additional cars created by the community. Reserved for special and unofficial events.",
        "version": "20.1117",
        "checksum": "67e27b35281f44a4418c0a14fc3e73d697d569745a970c1fdb1f9e1462fabb97"
    },
    "io_clockworks": {
        "description": "The three original Acclaim Clockworks mixed together with thirteen Clockworks by RV_Passion.",
        "version": "18.0415",
        "checksum": "8f664dda382ab2d3b279a1e7e4d40942c9872e426ae92c3d8ff11c4641169bf8"
    },
    "io_clockworks_modern": {
        "description": "Twelve original Clockworks by RV_Pure.",
        "version": "18.0807",
        "checksum": "f62bbf0e30ea75912a974623549a2ca45fe420088ea0f548b3ba9a87780ec653"
    },
    "io_lmstag": {
        "description": "Additional Battle Tag and Last Man Standing levels created by the community.",
        "version": "20.1117",
        "checksum": "a77a6d30566d5b2199f3a445c7e15590358f029a1b9ff069158dd582653f8aa5"
    },
    "io_loadlevel": {
        "description": "Loading screens for custom tracks created by Balesz.",
        "version": "18.0326",
        "checksum": "5bb4ffcc67ec6ae2905bcf5c8634829aa0cd213f2374c7c27da0927b76edf3fb"
    },
    "io_music": {
        "description": "Extra music for the I/O track pack.",
        "version": "20.1018",
        "checksum": "a3bcdaf365301fa6b3c030f130d4a4692f6e2f297770fcb2269b0c1ecc4aff0a"
    },
    "io_skins": {
        "description": "Additional skins for cars included in the io_cars package.",
        "version": "20.1018",
        "checksum": "da1eef65580a40a0c37bc1406850b5b8eaf492d5a1c08a63f62ebb521124d6de"
    },
    "io_skins_bonus": {
        "description": "Additional skins for cars included in the io_cars_bonus package.",
        "version": "20.1018",
        "checksum": "bc487afc6568dddccad456bf40523beb0aa6e99ea9975d60eb7a4eb658aa68a0"
    },
    "io_tracks": {
        "description": "Additional tracks created by the community. Used in regular I/O races.",
        "version": "20.1117",
        "checksum": "a39f145c914709472bb152bd55a5d452872677980febb8aad9f1625615a66428"
    },
    "io_tracks_bonus": {
        "description": "Additional tracks created by the community. Reserved for special and unofficial events.",
        "version": "20.1117",
        "checksum": "40939a30f53fc6c6c3a58a781b82933513b2e81e85322f6c034bbd6ccf199199"
    },
    "io_tracks_circuit": {
        "description": "Additional custom tracks used in drifting or other special events.",
        "version": "20.1018",
        "checksum": "b604dfcfa7bb7795417db5fa12c72469bcdbf96f9db29c1e6c7f4a48374170bb"
    },
    "io_soundtrack": {
        "description": "Free soundtrack alternative made by the community.",
        "version": "20.0302",
        "checksum": "d51e52d23d74d26aa93d8b96035d153ccf8e69f6bc93db7e3b615de060155010"
    },
    "rvgl_assets": {
        "description": "Common data files for RVGL.",
        "version": "21.0125",
        "checksum": "836bfab1c1a4becca0b3cc53e182539951d7a374e3dbd9f63034c7d7e04ecce9"
    },
    "rvgl_win32": {
        "description": "32-bit Windows binaries for RVGL.",
        "version": "21.0125",
        "checksum": "40731b02c6702c6dd7719b0d0b6df219b53746d7340f0ca2ced5de080adf0dd2"
    },
    "rvgl_win64": {
        "description": "64-bit Windows binaries for RVGL.",
        "version": "21.0125",
        "checksum": "03c62f60b86d09aa9f40fec7dc4c82e4a26402c0663d5d1ec7c5c821bd47d756"
    },
    "rvgl_linux": {
        "description": "GNU/Linux binaries for RVGL (32-bit and 64-bit).",
        "version": "21.0125",
        "checksum": "04633d158f3bd5752606d561dade6db60c94ab80b5931bc474a0e7bbb5ae8962"
    },
    "rvgl_dcpack": {
        "description": "Dreamcast content pack for RVGL (Rooftops and additional cars).",
        "version": "20.0905",
        "checksum": "846a81c6f9566206074a88a17886ddf94183e31c3b7582e341d4e6529558c9d2"
    }
}