RVGL Launcher Log File
Build: v0.1.21.201a1
Platform: linux

Saving recipe original.json...
Saving recipe online.json...
Saving recipe basic.json...
Loading recipe default.json...
Updating pack info...
Updating event info...
Checking for updates...
Could not fetch app info.
  HTTPSConnectionPool(host='rvgl.re-volt.io', port=443): Read timed out. (read timeout=15)
Could not get event information.
  HTTPSConnectionPool(host='re-volt.io', port=443): Read timed out. (read timeout=15)
Updating event info... Done!
Could not get repository information.
  HTTPSConnectionPool(host='distribute.re-volt.io', port=443): Read timed out. (read timeout=15)
Adding local package arm_corticircuiti...
Adding local package arm_devdemo...
Adding local package arm_seriearm21...
Adding local package arm_skins...
Adding local package arm_tracks...
Adding local package drift_cars...
Adding local package local...
Adding local package no-repo-trackpack...
Adding local package rlcars...
Adding local package twc-week1...
Adding local package twc-week2...
Updating pack info... Done!
Updating event info...
Adding event: https://re-volt.io/events/2021-02-05-2000?return-as=json
Adding event: https://re-volt.io/events/2021-02-06-1900?return-as=json
Adding event: https://re-volt.io/events/2021-02-07-1800?return-as=json
Updating event info... Done!
Joining event flo.rv.gl...
Launching game...
Running command ("/home/doonoo/.local/share/rvmm/packs/rvgl_linux/rvgl" -basepath "/home/doonoo/.local/share/rvmm" -prefpath "/home/doonoo/.local/share/rvmm/save"  -lobby flo.rv.gl).
Game closed.
Joining event bis.rv.gl...
Launching game...
Running command ("/home/doonoo/.local/share/rvmm/packs/rvgl_linux/rvgl" -basepath "/home/doonoo/.local/share/rvmm" -prefpath "/home/doonoo/.local/share/rvmm/save"  -lobby bis.rv.gl).
Game closed.
Joining event bis.rv.gl...
Launching game...
Running command ("/home/doonoo/.local/share/rvmm/packs/rvgl_linux/rvgl" -basepath "/home/doonoo/.local/share/rvmm" -prefpath "/home/doonoo/.local/share/rvmm/save"  -lobby bis.rv.gl).
Game closed.
