RVGL Launcher Log File
Build: v0.1.21.201a1
Platform: linux

Saving recipe original.json...
Saving recipe online.json...
Saving recipe basic.json...
Loading recipe default.json...
Updating pack info...
Updating event info...
Checking for updates...
RVGL Launcher is up to date.
Adding event: https://re-volt.io/events/2021-02-07-1800?return-as=json
Adding repository: https://re-volt.gitlab.io/rvio/repos/arm.json
Adding repository: https://re-volt.gitlab.io/rvio/repos/hajduc.json
Adding local package drift_cars...
Adding local package local...
Adding local package rlcars...
Updating pack info... Done!
Updating event info... Done!
Joining event kiri.rv.gl...
Launching game...
Running command ("/home/doonoo/.local/share/rvmm/packs/rvgl_linux/rvgl" -basepath "/home/doonoo/.local/share/rvmm" -prefpath "/home/doonoo/.local/share/rvmm/save"  -lobby kiri.rv.gl).
Game closed.
