RVGL Launcher Log File
Build: v0.1.21.201a1
Platform: linux

Saving recipe original.json...
Saving recipe online.json...
Saving recipe basic.json...
Loading recipe default.json...
Updating pack info...
Updating event info...
Checking for updates...
RVGL Launcher is up to date.
Adding event: https://re-volt.io/events/2021-02-09-1900?return-as=json
Adding repository: https://re-volt.gitlab.io/rvio/repos/arm.json
Adding event: https://re-volt.io/events/2021-02-11-1900?return-as=json
Adding repository: https://re-volt.gitlab.io/rvio/repos/hajduc.json
Adding event: https://re-volt.io/events/2021-02-12-2000?return-as=json
Adding local package drift_cars...
Adding local package local...
Adding local package rlcars...
Updating pack info... Done!
Adding event: https://re-volt.io/events/2021-02-13-1900?return-as=json
Adding event: https://re-volt.io/events/2021-02-15-1800?return-as=json
Adding event: https://re-volt.io/events/2021-02-17-1800?return-as=json
Adding event: https://re-volt.io/events/2021-02-19-1800?return-as=json
Updating event info... Done!
Launching game...
Running command ("/home/doonoo/.local/share/rvmm/packs/rvgl_linux/rvgl" -basepath "/home/doonoo/.local/share/rvmm" -prefpath "/home/doonoo/.local/share/rvmm/save"  ).
Game closed.
