RVGL Launcher Log File
Build: v0.1.21.201a1
Platform: linux

Saving recipe original.json...
Saving recipe online.json...
Saving recipe basic.json...
Loading recipe default.json...
Updating pack info...
Updating event info...
Checking for updates...
RVGL Launcher is up to date.
Adding repository: https://re-volt.gitlab.io/rvio/repos/arm.json
Adding repository: https://re-volt.gitlab.io/rvio/repos/hajduc.json
Adding event: https://re-volt.io/events/2021-02-04-1900?return-as=json
Adding local package drift_cars...
Adding local package local...
Adding local package rlcars...
Updating pack info... Done!
Adding event: https://re-volt.io/events/2021-02-05-2000?return-as=json
Adding event: https://re-volt.io/events/2021-02-06-1900?return-as=json
Adding event: https://re-volt.io/events/2021-02-07-1800?return-as=json
Updating event info... Done!
Launching game...
Running command ("/home/doonoo/.local/share/rvmm/packs/rvgl_linux/rvgl" -basepath "/home/doonoo/.local/share/rvmm" -prefpath "/home/doonoo/.local/share/rvmm/save"  ).
Game closed.
Updating packages...
Saving recipe default.json...
game_files is already installed and up to date.
io_cars is already installed and up to date.
io_cars_bonus is already installed and up to date.
io_clockworks is already installed and up to date.
io_clockworks_modern is already installed and up to date.
io_lmstag is already installed and up to date.
io_loadlevel is already installed and up to date.
io_music is already installed and up to date.
io_skins is already installed and up to date.
io_skins_bonus is already installed and up to date.
io_tracks is already installed and up to date.
io_tracks_bonus is already installed and up to date.
io_tracks_circuit is already installed and up to date.
io_soundtrack is already installed and up to date.
rvgl_assets is already installed and up to date.
rvgl_dcpack is already installed and up to date.
arm_tracks is already installed and up to date.
arm_skins is already installed and up to date.
arm_seriearm21 is already installed and up to date.
arm_corticircuiti is already installed and up to date.
arm_devdemo is already installed and up to date.
no-repo-trackpack is already installed and up to date.
twc-week1 is already installed and up to date.
twc-week2 is already installed and up to date.
drift_cars is already installed and up to date.
rvgl_linux is already installed and up to date.
Exporting packlist default.txt...
Updating packages... Done!
Updating pack info...
Adding repository: https://re-volt.gitlab.io/rvio/repos/arm.json
Adding repository: https://re-volt.gitlab.io/rvio/repos/hajduc.json
Adding local package drift_cars...
Adding local package local...
Adding local package rlcars...
Updating pack info... Done!
Updating packages...
Saving recipe default.json...
game_files is already installed and up to date.
io_cars is already installed and up to date.
io_cars_bonus is already installed and up to date.
io_clockworks is already installed and up to date.
io_clockworks_modern is already installed and up to date.
io_lmstag is already installed and up to date.
io_loadlevel is already installed and up to date.
io_music is already installed and up to date.
io_skins is already installed and up to date.
io_skins_bonus is already installed and up to date.
io_tracks is already installed and up to date.
io_tracks_bonus is already installed and up to date.
io_tracks_circuit is already installed and up to date.
io_soundtrack is already installed and up to date.
rvgl_assets is already installed and up to date.
rvgl_dcpack is already installed and up to date.
arm_tracks is already installed and up to date.
arm_skins is already installed and up to date.
arm_seriearm21 is already installed and up to date.
arm_corticircuiti is already installed and up to date.
arm_devdemo is already installed and up to date.
no-repo-trackpack is already installed and up to date.
twc-week1 is already installed and up to date.
twc-week2 is already installed and up to date.
drift_cars is already installed and up to date.
rlcars is already installed and up to date.
rvgl_linux is already installed and up to date.
Exporting packlist default.txt...
Updating packages... Done!
Updating pack info...
Adding repository: https://re-volt.gitlab.io/rvio/repos/arm.json
Adding repository: https://re-volt.gitlab.io/rvio/repos/hajduc.json
Adding local package drift_cars...
Adding local package local...
Adding local package rlcars...
Updating pack info... Done!
Launching game...
Running command ("/home/doonoo/.local/share/rvmm/packs/rvgl_linux/rvgl" -basepath "/home/doonoo/.local/share/rvmm" -prefpath "/home/doonoo/.local/share/rvmm/save"  ).
Updating pack info...
Updating event info...
Adding event: https://re-volt.io/events/2021-02-04-1900?return-as=json
Adding event: https://re-volt.io/events/2021-02-05-2000?return-as=json
Adding repository: https://re-volt.gitlab.io/rvio/repos/arm.json
Adding repository: https://re-volt.gitlab.io/rvio/repos/hajduc.json
Adding local package drift_cars...
Adding local package local...
Adding local package rlcars...
Updating pack info... Done!
Adding event: https://re-volt.io/events/2021-02-06-1900?return-as=json
Adding event: https://re-volt.io/events/2021-02-07-1800?return-as=json
Updating event info... Done!
Game closed.
Joining event naru.rv.gl...
Launching game...
Running command ("/home/doonoo/.local/share/rvmm/packs/rvgl_linux/rvgl" -basepath "/home/doonoo/.local/share/rvmm" -prefpath "/home/doonoo/.local/share/rvmm/save"  -lobby naru.rv.gl).
Game closed.
Updating pack info...
Updating event info...
Adding event: https://re-volt.io/events/2021-02-04-1900?return-as=json
Adding repository: https://re-volt.gitlab.io/rvio/repos/arm.json
Adding repository: https://re-volt.gitlab.io/rvio/repos/hajduc.json
Adding local package drift_cars...
Adding local package local...
Adding local package rlcars...
Updating pack info... Done!
Adding event: https://re-volt.io/events/2021-02-05-2000?return-as=json
Adding event: https://re-volt.io/events/2021-02-06-1900?return-as=json
Adding event: https://re-volt.io/events/2021-02-07-1800?return-as=json
Updating event info... Done!
Joining event naru.rv.gl...
Launching game...
Running command ("/home/doonoo/.local/share/rvmm/packs/rvgl_linux/rvgl" -basepath "/home/doonoo/.local/share/rvmm" -prefpath "/home/doonoo/.local/share/rvmm/save"  -lobby naru.rv.gl).
Updating pack info...
Updating event info...
Adding event: https://re-volt.io/events/2021-02-04-1900?return-as=json
Adding repository: https://re-volt.gitlab.io/rvio/repos/arm.json
Adding repository: https://re-volt.gitlab.io/rvio/repos/hajduc.json
Adding local package drift_cars...
Adding local package local...
Adding local package rlcars...
Updating pack info... Done!
Adding event: https://re-volt.io/events/2021-02-05-2000?return-as=json
Adding event: https://re-volt.io/events/2021-02-06-1900?return-as=json
Adding event: https://re-volt.io/events/2021-02-07-1800?return-as=json
Updating event info... Done!
Updating pack info...
Updating event info...
Adding event: https://re-volt.io/events/2021-02-04-1900?return-as=json
Adding repository: https://re-volt.gitlab.io/rvio/repos/arm.json
Adding repository: https://re-volt.gitlab.io/rvio/repos/hajduc.json
Adding local package drift_cars...
Adding local package local...
Adding local package rlcars...
Updating pack info... Done!
Adding event: https://re-volt.io/events/2021-02-05-2000?return-as=json
Adding event: https://re-volt.io/events/2021-02-06-1900?return-as=json
Adding event: https://re-volt.io/events/2021-02-07-1800?return-as=json
Updating event info... Done!
Updating pack info...
Updating event info...
Adding event: https://re-volt.io/events/2021-02-04-1900?return-as=json
Adding repository: https://re-volt.gitlab.io/rvio/repos/arm.json
Adding repository: https://re-volt.gitlab.io/rvio/repos/hajduc.json
Adding local package drift_cars...
Adding local package local...
Adding local package rlcars...
Updating pack info... Done!
Adding event: https://re-volt.io/events/2021-02-05-2000?return-as=json
Adding event: https://re-volt.io/events/2021-02-06-1900?return-as=json
Adding event: https://re-volt.io/events/2021-02-07-1800?return-as=json
Updating event info... Done!
Updating pack info...
Updating event info...
Adding event: https://re-volt.io/events/2021-02-04-1900?return-as=json
Adding repository: https://re-volt.gitlab.io/rvio/repos/arm.json
Adding repository: https://re-volt.gitlab.io/rvio/repos/hajduc.json
Adding local package drift_cars...
Adding local package local...
Adding local package rlcars...
Updating pack info... Done!
Adding event: https://re-volt.io/events/2021-02-05-2000?return-as=json
Adding event: https://re-volt.io/events/2021-02-06-1900?return-as=json
Adding event: https://re-volt.io/events/2021-02-07-1800?return-as=json
Updating event info... Done!
Updating pack info...
Updating event info...
Adding event: https://re-volt.io/events/2021-02-04-1900?return-as=json
Adding repository: https://re-volt.gitlab.io/rvio/repos/arm.json
Adding repository: https://re-volt.gitlab.io/rvio/repos/hajduc.json
Adding event: https://re-volt.io/events/2021-02-05-2000?return-as=json
Adding local package drift_cars...
Adding local package local...
Adding local package rlcars...
Updating pack info... Done!
Adding event: https://re-volt.io/events/2021-02-06-1900?return-as=json
Adding event: https://re-volt.io/events/2021-02-07-1800?return-as=json
Updating event info... Done!
Updating pack info...
Updating event info...
Adding event: https://re-volt.io/events/2021-02-04-1900?return-as=json
Adding repository: https://re-volt.gitlab.io/rvio/repos/arm.json
Adding repository: https://re-volt.gitlab.io/rvio/repos/hajduc.json
Adding local package drift_cars...
Adding local package local...
Adding local package rlcars...
Updating pack info... Done!
Adding event: https://re-volt.io/events/2021-02-05-2000?return-as=json
Adding event: https://re-volt.io/events/2021-02-06-1900?return-as=json
Adding event: https://re-volt.io/events/2021-02-07-1800?return-as=json
Updating event info... Done!
Updating pack info...
Updating event info...
Adding event: https://re-volt.io/events/2021-02-04-1900?return-as=json
Adding repository: https://re-volt.gitlab.io/rvio/repos/arm.json
Adding repository: https://re-volt.gitlab.io/rvio/repos/hajduc.json
Adding local package drift_cars...
Adding local package local...
Adding local package rlcars...
Updating pack info... Done!
Adding event: https://re-volt.io/events/2021-02-05-2000?return-as=json
Adding event: https://re-volt.io/events/2021-02-06-1900?return-as=json
Adding event: https://re-volt.io/events/2021-02-07-1800?return-as=json
Updating event info... Done!
Updating pack info...
Updating event info...
Adding repository: https://re-volt.gitlab.io/rvio/repos/arm.json
Adding repository: https://re-volt.gitlab.io/rvio/repos/hajduc.json
Adding event: https://re-volt.io/events/2021-02-04-1900?return-as=json
Adding local package drift_cars...
Adding local package local...
Adding local package rlcars...
Updating pack info... Done!
Adding event: https://re-volt.io/events/2021-02-05-2000?return-as=json
Adding event: https://re-volt.io/events/2021-02-06-1900?return-as=json
Adding event: https://re-volt.io/events/2021-02-07-1800?return-as=json
Updating event info... Done!
Updating pack info...
Updating event info...
Adding event: https://re-volt.io/events/2021-02-04-1900?return-as=json
Adding repository: https://re-volt.gitlab.io/rvio/repos/arm.json
Adding repository: https://re-volt.gitlab.io/rvio/repos/hajduc.json
Adding local package drift_cars...
Adding local package local...
Adding local package rlcars...
Updating pack info... Done!
Adding event: https://re-volt.io/events/2021-02-05-2000?return-as=json
Adding event: https://re-volt.io/events/2021-02-06-1900?return-as=json
Adding event: https://re-volt.io/events/2021-02-07-1800?return-as=json
Updating event info... Done!
Updating pack info...
Updating event info...
Adding event: https://re-volt.io/events/2021-02-04-1900?return-as=json
Adding repository: https://re-volt.gitlab.io/rvio/repos/arm.json
Adding repository: https://re-volt.gitlab.io/rvio/repos/hajduc.json
Adding local package drift_cars...
Adding local package local...
Adding local package rlcars...
Updating pack info... Done!
Adding event: https://re-volt.io/events/2021-02-05-2000?return-as=json
Adding event: https://re-volt.io/events/2021-02-06-1900?return-as=json
Adding event: https://re-volt.io/events/2021-02-07-1800?return-as=json
Updating event info... Done!
Updating pack info...
Updating event info...
Adding event: https://re-volt.io/events/2021-02-04-1900?return-as=json
Adding repository: https://re-volt.gitlab.io/rvio/repos/arm.json
Adding repository: https://re-volt.gitlab.io/rvio/repos/hajduc.json
Adding local package drift_cars...
Adding local package local...
Adding local package rlcars...
Updating pack info... Done!
Adding event: https://re-volt.io/events/2021-02-05-2000?return-as=json
Adding event: https://re-volt.io/events/2021-02-06-1900?return-as=json
Adding event: https://re-volt.io/events/2021-02-07-1800?return-as=json
Updating event info... Done!
Game closed.
Updating pack info...
Updating event info...
Adding event: https://re-volt.io/events/2021-02-04-1900?return-as=json
Adding repository: https://re-volt.gitlab.io/rvio/repos/arm.json
Adding repository: https://re-volt.gitlab.io/rvio/repos/hajduc.json
Adding local package drift_cars...
Adding local package local...
Adding local package rlcars...
Updating pack info... Done!
Adding event: https://re-volt.io/events/2021-02-05-2000?return-as=json
Adding event: https://re-volt.io/events/2021-02-06-1900?return-as=json
Adding event: https://re-volt.io/events/2021-02-07-1800?return-as=json
Updating event info... Done!
