RVGL Launcher Log File
Build: v0.1.21.201a1
Platform: linux

Saving recipe original.json...
Saving recipe online.json...
Saving recipe basic.json...
Loading recipe default.json...
Updating pack info...
Updating event info...
Checking for updates...
RVGL Launcher is up to date.
Adding event: https://re-volt.io/events/2021-02-09-1900?return-as=json
Adding event: https://re-volt.io/events/2021-02-11-1900?return-as=json
Adding repository: https://re-volt.gitlab.io/rvio/repos/arm.json
Adding repository: https://re-volt.gitlab.io/rvio/repos/hajduc.json
Adding local package drift_cars...
Adding local package local...
Adding local package rlcars...
Updating pack info... Done!
Adding event: https://re-volt.io/events/2021-02-12-2000?return-as=json
Adding event: https://re-volt.io/events/2021-02-13-1900?return-as=json
Adding event: https://re-volt.io/events/2021-02-15-1800?return-as=json
Adding event: https://re-volt.io/events/2021-02-17-1800?return-as=json
Adding event: https://re-volt.io/events/2021-02-19-1800?return-as=json
Updating event info... Done!
Launching game...
Running command ("/home/doonoo/.local/share/rvmm/packs/rvgl_linux/rvgl" -basepath "/home/doonoo/.local/share/rvmm" -prefpath "/home/doonoo/.local/share/rvmm/save"  ).
Updating pack info...
Updating event info...
Adding event: https://re-volt.io/events/2021-02-09-1900?return-as=json
Adding repository: https://re-volt.gitlab.io/rvio/repos/arm.json
Adding event: https://re-volt.io/events/2021-02-11-1900?return-as=json
Adding repository: https://re-volt.gitlab.io/rvio/repos/hajduc.json
Adding local package drift_cars...
Adding local package local...
Adding local package rlcars...
Updating pack info... Done!
Adding event: https://re-volt.io/events/2021-02-12-2000?return-as=json
Adding event: https://re-volt.io/events/2021-02-13-1900?return-as=json
Adding event: https://re-volt.io/events/2021-02-15-1800?return-as=json
Adding event: https://re-volt.io/events/2021-02-17-1800?return-as=json
Adding event: https://re-volt.io/events/2021-02-19-1800?return-as=json
Updating event info... Done!
Updating pack info...
Updating event info...
Adding event: https://re-volt.io/events/2021-02-09-1900?return-as=json
Adding event: https://re-volt.io/events/2021-02-11-1900?return-as=json
Adding repository: https://re-volt.gitlab.io/rvio/repos/arm.json
Adding repository: https://re-volt.gitlab.io/rvio/repos/hajduc.json
Adding local package drift_cars...
Adding local package local...
Adding local package rlcars...
Updating pack info... Done!
Adding event: https://re-volt.io/events/2021-02-12-2000?return-as=json
Adding event: https://re-volt.io/events/2021-02-13-1900?return-as=json
Adding event: https://re-volt.io/events/2021-02-15-1800?return-as=json
Adding event: https://re-volt.io/events/2021-02-17-1800?return-as=json
Adding event: https://re-volt.io/events/2021-02-19-1800?return-as=json
Updating event info... Done!
Updating pack info...
Updating event info...
Adding event: https://re-volt.io/events/2021-02-09-1900?return-as=json
Adding repository: https://re-volt.gitlab.io/rvio/repos/arm.json
Adding repository: https://re-volt.gitlab.io/rvio/repos/hajduc.json
Adding local package drift_cars...
Adding local package local...
Adding local package rlcars...
Updating pack info... Done!
Adding event: https://re-volt.io/events/2021-02-11-1900?return-as=json
Adding event: https://re-volt.io/events/2021-02-12-2000?return-as=json
Adding event: https://re-volt.io/events/2021-02-13-1900?return-as=json
Adding event: https://re-volt.io/events/2021-02-15-1800?return-as=json
Adding event: https://re-volt.io/events/2021-02-17-1800?return-as=json
Adding event: https://re-volt.io/events/2021-02-19-1800?return-as=json
Updating event info... Done!
Updating pack info...
Updating event info...
Adding event: https://re-volt.io/events/2021-02-09-1900?return-as=json
Adding repository: https://re-volt.gitlab.io/rvio/repos/arm.json
Adding event: https://re-volt.io/events/2021-02-11-1900?return-as=json
Adding repository: https://re-volt.gitlab.io/rvio/repos/hajduc.json
Adding local package drift_cars...
Adding local package local...
Adding local package rlcars...
Updating pack info... Done!
Adding event: https://re-volt.io/events/2021-02-12-2000?return-as=json
Adding event: https://re-volt.io/events/2021-02-13-1900?return-as=json
Adding event: https://re-volt.io/events/2021-02-15-1800?return-as=json
Adding event: https://re-volt.io/events/2021-02-17-1800?return-as=json
Adding event: https://re-volt.io/events/2021-02-19-1800?return-as=json
Updating event info... Done!
Updating pack info...
Updating event info...
Adding event: https://re-volt.io/events/2021-02-09-1900?return-as=json
Adding repository: https://re-volt.gitlab.io/rvio/repos/arm.json
Adding repository: https://re-volt.gitlab.io/rvio/repos/hajduc.json
Adding event: https://re-volt.io/events/2021-02-11-1900?return-as=json
Adding local package drift_cars...
Adding local package local...
Adding local package rlcars...
Updating pack info... Done!
Adding event: https://re-volt.io/events/2021-02-12-2000?return-as=json
Adding event: https://re-volt.io/events/2021-02-13-1900?return-as=json
Adding event: https://re-volt.io/events/2021-02-15-1800?return-as=json
Adding event: https://re-volt.io/events/2021-02-17-1800?return-as=json
Adding event: https://re-volt.io/events/2021-02-19-1800?return-as=json
Updating event info... Done!
Updating pack info...
Updating event info...
Adding event: https://re-volt.io/events/2021-02-09-1900?return-as=json
Adding event: https://re-volt.io/events/2021-02-11-1900?return-as=json
Adding repository: https://re-volt.gitlab.io/rvio/repos/arm.json
Adding repository: https://re-volt.gitlab.io/rvio/repos/hajduc.json
Adding event: https://re-volt.io/events/2021-02-12-2000?return-as=json
Adding local package drift_cars...
Adding local package local...
Adding local package rlcars...
Updating pack info... Done!
Adding event: https://re-volt.io/events/2021-02-13-1900?return-as=json
Adding event: https://re-volt.io/events/2021-02-15-1800?return-as=json
Adding event: https://re-volt.io/events/2021-02-17-1800?return-as=json
Adding event: https://re-volt.io/events/2021-02-19-1800?return-as=json
Updating event info... Done!
Updating pack info...
Updating event info...
Could not fetch package list.
  HTTPSConnectionPool(host='distribute.re-volt.io', port=443): Max retries exceeded with url: /packages.json (Caused by NewConnectionError('<urllib3.connection.HTTPSConnection object at 0x7f53ac159700>: Failed to establish a new connection: [Errno -3] Temporary failure in name resolution'))
Could not get event information.
  HTTPSConnectionPool(host='re-volt.io', port=443): Max retries exceeded with url: /events-data (Caused by NewConnectionError('<urllib3.connection.HTTPSConnection object at 0x7f53ac159b50>: Failed to establish a new connection: [Errno -3] Temporary failure in name resolution'))
Updating event info... Done!
Could not get repository information.
  HTTPSConnectionPool(host='distribute.re-volt.io', port=443): Max retries exceeded with url: /repos/ (Caused by NewConnectionError('<urllib3.connection.HTTPSConnection object at 0x7f53afa3efa0>: Failed to establish a new connection: [Errno -3] Temporary failure in name resolution'))
Adding local package arm_corticircuiti...
Adding local package arm_devdemo...
Adding local package arm_seriearm21...
Adding local package arm_skins...
Adding local package arm_tracks...
Adding local package drift_cars...
Adding local package local...
Adding local package no-repo-trackpack...
Adding local package rlcars...
Adding local package twc-week1...
Adding local package twc-week2...
Updating pack info... Done!
Game closed.
Updating pack info...
Updating event info...
Could not fetch package list.
  HTTPSConnectionPool(host='distribute.re-volt.io', port=443): Max retries exceeded with url: /packages.json (Caused by NewConnectionError('<urllib3.connection.HTTPSConnection object at 0x7f53ac159760>: Failed to establish a new connection: [Errno -3] Temporary failure in name resolution'))
Could not get event information.
  HTTPSConnectionPool(host='re-volt.io', port=443): Max retries exceeded with url: /events-data (Caused by NewConnectionError('<urllib3.connection.HTTPSConnection object at 0x7f53ac17cc40>: Failed to establish a new connection: [Errno -3] Temporary failure in name resolution'))
Updating event info... Done!
Could not get repository information.
  HTTPSConnectionPool(host='distribute.re-volt.io', port=443): Max retries exceeded with url: /repos/ (Caused by NewConnectionError('<urllib3.connection.HTTPSConnection object at 0x7f53ac159550>: Failed to establish a new connection: [Errno -3] Temporary failure in name resolution'))
Adding local package arm_corticircuiti...
Adding local package arm_devdemo...
Adding local package arm_seriearm21...
Adding local package arm_skins...
Adding local package arm_tracks...
Adding local package drift_cars...
Adding local package local...
Adding local package no-repo-trackpack...
Adding local package rlcars...
Adding local package twc-week1...
Adding local package twc-week2...
Updating pack info... Done!
Updating pack info...
Updating event info...
Could not fetch package list.
  HTTPSConnectionPool(host='distribute.re-volt.io', port=443): Max retries exceeded with url: /packages.json (Caused by NewConnectionError('<urllib3.connection.HTTPSConnection object at 0x7f53ac159dc0>: Failed to establish a new connection: [Errno -3] Temporary failure in name resolution'))
Could not get event information.
  HTTPSConnectionPool(host='re-volt.io', port=443): Max retries exceeded with url: /events-data (Caused by NewConnectionError('<urllib3.connection.HTTPSConnection object at 0x7f53ac17ccd0>: Failed to establish a new connection: [Errno -3] Temporary failure in name resolution'))
Updating event info... Done!
Could not get repository information.
  HTTPSConnectionPool(host='distribute.re-volt.io', port=443): Max retries exceeded with url: /repos/ (Caused by NewConnectionError('<urllib3.connection.HTTPSConnection object at 0x7f53afa460d0>: Failed to establish a new connection: [Errno -3] Temporary failure in name resolution'))
Adding local package arm_corticircuiti...
Adding local package arm_devdemo...
Adding local package arm_seriearm21...
Adding local package arm_skins...
Adding local package arm_tracks...
Adding local package drift_cars...
Adding local package local...
Adding local package no-repo-trackpack...
Adding local package rlcars...
Adding local package twc-week1...
Adding local package twc-week2...
Updating pack info... Done!
Updating pack info...
Updating event info...
Could not fetch package list.
  HTTPSConnectionPool(host='distribute.re-volt.io', port=443): Max retries exceeded with url: /packages.json (Caused by NewConnectionError('<urllib3.connection.HTTPSConnection object at 0x7f53ac159880>: Failed to establish a new connection: [Errno -3] Temporary failure in name resolution'))
Could not get event information.
  HTTPSConnectionPool(host='re-volt.io', port=443): Max retries exceeded with url: /events-data (Caused by NewConnectionError('<urllib3.connection.HTTPSConnection object at 0x7f53ac17cf70>: Failed to establish a new connection: [Errno -3] Temporary failure in name resolution'))
Updating event info... Done!
Could not get repository information.
  HTTPSConnectionPool(host='distribute.re-volt.io', port=443): Max retries exceeded with url: /repos/ (Caused by NewConnectionError('<urllib3.connection.HTTPSConnection object at 0x7f53ac332eb0>: Failed to establish a new connection: [Errno -3] Temporary failure in name resolution'))
Adding local package arm_corticircuiti...
Adding local package arm_devdemo...
Adding local package arm_seriearm21...
Adding local package arm_skins...
Adding local package arm_tracks...
Adding local package drift_cars...
Adding local package local...
Adding local package no-repo-trackpack...
Adding local package rlcars...
Adding local package twc-week1...
Adding local package twc-week2...
Updating pack info... Done!
Updating pack info...
Updating event info...
Could not fetch package list.
  HTTPSConnectionPool(host='distribute.re-volt.io', port=443): Max retries exceeded with url: /packages.json (Caused by NewConnectionError('<urllib3.connection.HTTPSConnection object at 0x7f53ac159e80>: Failed to establish a new connection: [Errno -3] Temporary failure in name resolution'))
Could not get event information.
  HTTPSConnectionPool(host='re-volt.io', port=443): Max retries exceeded with url: /events-data (Caused by NewConnectionError('<urllib3.connection.HTTPSConnection object at 0x7f53ac17c9d0>: Failed to establish a new connection: [Errno -3] Temporary failure in name resolution'))
Updating event info... Done!
Could not get repository information.
  HTTPSConnectionPool(host='distribute.re-volt.io', port=443): Max retries exceeded with url: /repos/ (Caused by NewConnectionError('<urllib3.connection.HTTPSConnection object at 0x7f53afa3ecd0>: Failed to establish a new connection: [Errno -3] Temporary failure in name resolution'))
Adding local package arm_corticircuiti...
Adding local package arm_devdemo...
Adding local package arm_seriearm21...
Adding local package arm_skins...
Adding local package arm_tracks...
Adding local package drift_cars...
Adding local package local...
Adding local package no-repo-trackpack...
Adding local package rlcars...
Adding local package twc-week1...
Adding local package twc-week2...
Updating pack info... Done!
Updating pack info...
Updating event info...
Could not get event information.
  HTTPSConnectionPool(host='re-volt.io', port=443): Max retries exceeded with url: /events-data (Caused by NewConnectionError('<urllib3.connection.HTTPSConnection object at 0x7f53ac17c940>: Failed to establish a new connection: [Errno -3] Temporary failure in name resolution'))
Could not fetch package list.
  HTTPSConnectionPool(host='distribute.re-volt.io', port=443): Max retries exceeded with url: /packages.json (Caused by NewConnectionError('<urllib3.connection.HTTPSConnection object at 0x7f53ac159970>: Failed to establish a new connection: [Errno -3] Temporary failure in name resolution'))
Updating event info... Done!
Could not get repository information.
  HTTPSConnectionPool(host='distribute.re-volt.io', port=443): Max retries exceeded with url: /repos/ (Caused by NewConnectionError('<urllib3.connection.HTTPSConnection object at 0x7f53afa3ed30>: Failed to establish a new connection: [Errno -3] Temporary failure in name resolution'))
Adding local package arm_corticircuiti...
Adding local package arm_devdemo...
Adding local package arm_seriearm21...
Adding local package arm_skins...
Adding local package arm_tracks...
Adding local package drift_cars...
Adding local package local...
Adding local package no-repo-trackpack...
Adding local package rlcars...
Adding local package twc-week1...
Adding local package twc-week2...
Updating pack info... Done!
Updating pack info...
Updating event info...
Could not fetch package list.
  HTTPSConnectionPool(host='distribute.re-volt.io', port=443): Max retries exceeded with url: /packages.json (Caused by NewConnectionError('<urllib3.connection.HTTPSConnection object at 0x7f53ac159640>: Failed to establish a new connection: [Errno -3] Temporary failure in name resolution'))
Could not get event information.
  HTTPSConnectionPool(host='re-volt.io', port=443): Max retries exceeded with url: /events-data (Caused by NewConnectionError('<urllib3.connection.HTTPSConnection object at 0x7f53ac17c9d0>: Failed to establish a new connection: [Errno -3] Temporary failure in name resolution'))
Updating event info... Done!
Could not get repository information.
  HTTPSConnectionPool(host='distribute.re-volt.io', port=443): Max retries exceeded with url: /repos/ (Caused by NewConnectionError('<urllib3.connection.HTTPSConnection object at 0x7f53afa3ee80>: Failed to establish a new connection: [Errno -3] Temporary failure in name resolution'))
Adding local package arm_corticircuiti...
Adding local package arm_devdemo...
Adding local package arm_seriearm21...
Adding local package arm_skins...
Adding local package arm_tracks...
Adding local package drift_cars...
Adding local package local...
Adding local package no-repo-trackpack...
Adding local package rlcars...
Adding local package twc-week1...
Adding local package twc-week2...
Updating pack info... Done!
Updating pack info...
Updating event info...
Could not get event information.
  HTTPSConnectionPool(host='re-volt.io', port=443): Max retries exceeded with url: /events-data (Caused by NewConnectionError('<urllib3.connection.HTTPSConnection object at 0x7f53ac17c2b0>: Failed to establish a new connection: [Errno -3] Temporary failure in name resolution'))
Could not fetch package list.
  HTTPSConnectionPool(host='distribute.re-volt.io', port=443): Max retries exceeded with url: /packages.json (Caused by NewConnectionError('<urllib3.connection.HTTPSConnection object at 0x7f53ac159b50>: Failed to establish a new connection: [Errno -3] Temporary failure in name resolution'))
Updating event info... Done!
Could not get repository information.
  HTTPSConnectionPool(host='distribute.re-volt.io', port=443): Max retries exceeded with url: /repos/ (Caused by NewConnectionError('<urllib3.connection.HTTPSConnection object at 0x7f53afa3ed30>: Failed to establish a new connection: [Errno -3] Temporary failure in name resolution'))
Adding local package arm_corticircuiti...
Adding local package arm_devdemo...
Adding local package arm_seriearm21...
Adding local package arm_skins...
Adding local package arm_tracks...
Adding local package drift_cars...
Adding local package local...
Adding local package no-repo-trackpack...
Adding local package rlcars...
Adding local package twc-week1...
Adding local package twc-week2...
Updating pack info... Done!
Updating pack info...
Updating event info...
Could not fetch package list.
  HTTPSConnectionPool(host='distribute.re-volt.io', port=443): Max retries exceeded with url: /packages.json (Caused by NewConnectionError('<urllib3.connection.HTTPSConnection object at 0x7f53ac159730>: Failed to establish a new connection: [Errno -3] Temporary failure in name resolution'))
Could not get event information.
  HTTPSConnectionPool(host='re-volt.io', port=443): Max retries exceeded with url: /events-data (Caused by NewConnectionError('<urllib3.connection.HTTPSConnection object at 0x7f53ac17cd00>: Failed to establish a new connection: [Errno -3] Temporary failure in name resolution'))
Updating event info... Done!
Could not get repository information.
  HTTPSConnectionPool(host='distribute.re-volt.io', port=443): Max retries exceeded with url: /repos/ (Caused by NewConnectionError('<urllib3.connection.HTTPSConnection object at 0x7f53afa3ee20>: Failed to establish a new connection: [Errno -3] Temporary failure in name resolution'))
Adding local package arm_corticircuiti...
Adding local package arm_devdemo...
Adding local package arm_seriearm21...
Adding local package arm_skins...
Adding local package arm_tracks...
Adding local package drift_cars...
Adding local package local...
Adding local package no-repo-trackpack...
Adding local package rlcars...
Adding local package twc-week1...
Adding local package twc-week2...
Updating pack info... Done!
Updating pack info...
Updating event info...
Could not fetch package list.
  HTTPSConnectionPool(host='distribute.re-volt.io', port=443): Max retries exceeded with url: /packages.json (Caused by NewConnectionError('<urllib3.connection.HTTPSConnection object at 0x7f53ac1596a0>: Failed to establish a new connection: [Errno -3] Temporary failure in name resolution'))
Could not get event information.
  HTTPSConnectionPool(host='re-volt.io', port=443): Max retries exceeded with url: /events-data (Caused by NewConnectionError('<urllib3.connection.HTTPSConnection object at 0x7f53ac17c940>: Failed to establish a new connection: [Errno -3] Temporary failure in name resolution'))
Updating event info... Done!
Could not get repository information.
  HTTPSConnectionPool(host='distribute.re-volt.io', port=443): Max retries exceeded with url: /repos/ (Caused by NewConnectionError('<urllib3.connection.HTTPSConnection object at 0x7f53ac332d30>: Failed to establish a new connection: [Errno -3] Temporary failure in name resolution'))
Adding local package arm_corticircuiti...
Adding local package arm_devdemo...
Adding local package arm_seriearm21...
Adding local package arm_skins...
Adding local package arm_tracks...
Adding local package drift_cars...
Adding local package local...
Adding local package no-repo-trackpack...
Adding local package rlcars...
Adding local package twc-week1...
Adding local package twc-week2...
Updating pack info... Done!
Updating pack info...
Updating event info...
Could not fetch package list.
  HTTPSConnectionPool(host='distribute.re-volt.io', port=443): Max retries exceeded with url: /packages.json (Caused by NewConnectionError('<urllib3.connection.HTTPSConnection object at 0x7f53ac159550>: Failed to establish a new connection: [Errno -3] Temporary failure in name resolution'))
Could not get event information.
  HTTPSConnectionPool(host='re-volt.io', port=443): Max retries exceeded with url: /events-data (Caused by NewConnectionError('<urllib3.connection.HTTPSConnection object at 0x7f53ac17c130>: Failed to establish a new connection: [Errno -3] Temporary failure in name resolution'))
Updating event info... Done!
Could not get repository information.
  HTTPSConnectionPool(host='distribute.re-volt.io', port=443): Max retries exceeded with url: /repos/ (Caused by NewConnectionError('<urllib3.connection.HTTPSConnection object at 0x7f53afa3edc0>: Failed to establish a new connection: [Errno -3] Temporary failure in name resolution'))
Adding local package arm_corticircuiti...
Adding local package arm_devdemo...
Adding local package arm_seriearm21...
Adding local package arm_skins...
Adding local package arm_tracks...
Adding local package drift_cars...
Adding local package local...
Adding local package no-repo-trackpack...
Adding local package rlcars...
Adding local package twc-week1...
Adding local package twc-week2...
Updating pack info... Done!
Updating pack info...
Updating event info...
Could not fetch package list.
  HTTPSConnectionPool(host='distribute.re-volt.io', port=443): Max retries exceeded with url: /packages.json (Caused by NewConnectionError('<urllib3.connection.HTTPSConnection object at 0x7f53ac1599a0>: Failed to establish a new connection: [Errno -3] Temporary failure in name resolution'))
Could not get event information.
  HTTPSConnectionPool(host='re-volt.io', port=443): Max retries exceeded with url: /events-data (Caused by NewConnectionError('<urllib3.connection.HTTPSConnection object at 0x7f53ac17ce80>: Failed to establish a new connection: [Errno -3] Temporary failure in name resolution'))
Updating event info... Done!
Could not get repository information.
  HTTPSConnectionPool(host='distribute.re-volt.io', port=443): Max retries exceeded with url: /repos/ (Caused by NewConnectionError('<urllib3.connection.HTTPSConnection object at 0x7f53afa46340>: Failed to establish a new connection: [Errno -3] Temporary failure in name resolution'))
Adding local package arm_corticircuiti...
Adding local package arm_devdemo...
Adding local package arm_seriearm21...
Adding local package arm_skins...
Adding local package arm_tracks...
Adding local package drift_cars...
Adding local package local...
Adding local package no-repo-trackpack...
Adding local package rlcars...
Adding local package twc-week1...
Adding local package twc-week2...
Updating pack info... Done!
Updating pack info...
Updating event info...
Could not fetch package list.
  HTTPSConnectionPool(host='distribute.re-volt.io', port=443): Max retries exceeded with url: /packages.json (Caused by NewConnectionError('<urllib3.connection.HTTPSConnection object at 0x7f53ac159e80>: Failed to establish a new connection: [Errno -3] Temporary failure in name resolution'))
Could not get event information.
  HTTPSConnectionPool(host='re-volt.io', port=443): Max retries exceeded with url: /events-data (Caused by NewConnectionError('<urllib3.connection.HTTPSConnection object at 0x7f53ac17cbb0>: Failed to establish a new connection: [Errno -3] Temporary failure in name resolution'))
Updating event info... Done!
Could not get repository information.
  HTTPSConnectionPool(host='distribute.re-volt.io', port=443): Max retries exceeded with url: /repos/ (Caused by NewConnectionError('<urllib3.connection.HTTPSConnection object at 0x7f53afa46340>: Failed to establish a new connection: [Errno -3] Temporary failure in name resolution'))
Adding local package arm_corticircuiti...
Adding local package arm_devdemo...
Adding local package arm_seriearm21...
Adding local package arm_skins...
Adding local package arm_tracks...
Adding local package drift_cars...
Adding local package local...
Adding local package no-repo-trackpack...
Adding local package rlcars...
Adding local package twc-week1...
Adding local package twc-week2...
Updating pack info... Done!
Updating pack info...
Updating event info...
Could not fetch package list.
  HTTPSConnectionPool(host='distribute.re-volt.io', port=443): Max retries exceeded with url: /packages.json (Caused by NewConnectionError('<urllib3.connection.HTTPSConnection object at 0x7f53ac159d30>: Failed to establish a new connection: [Errno -3] Temporary failure in name resolution'))
Could not get event information.
  HTTPSConnectionPool(host='re-volt.io', port=443): Max retries exceeded with url: /events-data (Caused by NewConnectionError('<urllib3.connection.HTTPSConnection object at 0x7f53ac17c2e0>: Failed to establish a new connection: [Errno -3] Temporary failure in name resolution'))
Updating event info... Done!
Could not get repository information.
  HTTPSConnectionPool(host='distribute.re-volt.io', port=443): Max retries exceeded with url: /repos/ (Caused by NewConnectionError('<urllib3.connection.HTTPSConnection object at 0x7f53afa3eeb0>: Failed to establish a new connection: [Errno -3] Temporary failure in name resolution'))
Adding local package arm_corticircuiti...
Adding local package arm_devdemo...
Adding local package arm_seriearm21...
Adding local package arm_skins...
Adding local package arm_tracks...
Adding local package drift_cars...
Adding local package local...
Adding local package no-repo-trackpack...
Adding local package rlcars...
Adding local package twc-week1...
Adding local package twc-week2...
Updating pack info... Done!
Updating pack info...
Updating event info...
Could not fetch package list.
  HTTPSConnectionPool(host='distribute.re-volt.io', port=443): Max retries exceeded with url: /packages.json (Caused by NewConnectionError('<urllib3.connection.HTTPSConnection object at 0x7f53ac1599a0>: Failed to establish a new connection: [Errno -3] Temporary failure in name resolution'))
Could not get event information.
  HTTPSConnectionPool(host='re-volt.io', port=443): Max retries exceeded with url: /events-data (Caused by NewConnectionError('<urllib3.connection.HTTPSConnection object at 0x7f53ac17c130>: Failed to establish a new connection: [Errno -3] Temporary failure in name resolution'))
Updating event info... Done!
Could not get repository information.
  HTTPSConnectionPool(host='distribute.re-volt.io', port=443): Max retries exceeded with url: /repos/ (Caused by NewConnectionError('<urllib3.connection.HTTPSConnection object at 0x7f53afa3ee50>: Failed to establish a new connection: [Errno -3] Temporary failure in name resolution'))
Adding local package arm_corticircuiti...
Adding local package arm_devdemo...
Adding local package arm_seriearm21...
Adding local package arm_skins...
Adding local package arm_tracks...
Adding local package drift_cars...
Adding local package local...
Adding local package no-repo-trackpack...
Adding local package rlcars...
Adding local package twc-week1...
Adding local package twc-week2...
Updating pack info... Done!
Updating pack info...
Updating event info...
Could not get event information.
  HTTPSConnectionPool(host='re-volt.io', port=443): Max retries exceeded with url: /events-data (Caused by NewConnectionError('<urllib3.connection.HTTPSConnection object at 0x7f53ac17c580>: Failed to establish a new connection: [Errno -3] Temporary failure in name resolution'))
Could not fetch package list.
  HTTPSConnectionPool(host='distribute.re-volt.io', port=443): Max retries exceeded with url: /packages.json (Caused by NewConnectionError('<urllib3.connection.HTTPSConnection object at 0x7f53ac159160>: Failed to establish a new connection: [Errno -3] Temporary failure in name resolution'))
Updating event info... Done!
Could not get repository information.
  HTTPSConnectionPool(host='distribute.re-volt.io', port=443): Max retries exceeded with url: /repos/ (Caused by NewConnectionError('<urllib3.connection.HTTPSConnection object at 0x7f53afa3ef70>: Failed to establish a new connection: [Errno -3] Temporary failure in name resolution'))
Adding local package arm_corticircuiti...
Adding local package arm_devdemo...
Adding local package arm_seriearm21...
Adding local package arm_skins...
Adding local package arm_tracks...
Adding local package drift_cars...
Adding local package local...
Adding local package no-repo-trackpack...
Adding local package rlcars...
Adding local package twc-week1...
Adding local package twc-week2...
Updating pack info... Done!
Updating pack info...
Updating event info...
Could not fetch package list.
  HTTPSConnectionPool(host='distribute.re-volt.io', port=443): Max retries exceeded with url: /packages.json (Caused by NewConnectionError('<urllib3.connection.HTTPSConnection object at 0x7f53ac159af0>: Failed to establish a new connection: [Errno -3] Temporary failure in name resolution'))
Could not get event information.
  HTTPSConnectionPool(host='re-volt.io', port=443): Max retries exceeded with url: /events-data (Caused by NewConnectionError('<urllib3.connection.HTTPSConnection object at 0x7f53ac17c040>: Failed to establish a new connection: [Errno -3] Temporary failure in name resolution'))
Updating event info... Done!
Could not get repository information.
  HTTPSConnectionPool(host='distribute.re-volt.io', port=443): Max retries exceeded with url: /repos/ (Caused by NewConnectionError('<urllib3.connection.HTTPSConnection object at 0x7f53afa3ef70>: Failed to establish a new connection: [Errno -3] Temporary failure in name resolution'))
Adding local package arm_corticircuiti...
Adding local package arm_devdemo...
Adding local package arm_seriearm21...
Adding local package arm_skins...
Adding local package arm_tracks...
Adding local package drift_cars...
Adding local package local...
Adding local package no-repo-trackpack...
Adding local package rlcars...
Adding local package twc-week1...
Adding local package twc-week2...
Updating pack info... Done!
Updating pack info...
Updating event info...
Could not fetch package list.
  HTTPSConnectionPool(host='distribute.re-volt.io', port=443): Max retries exceeded with url: /packages.json (Caused by NewConnectionError('<urllib3.connection.HTTPSConnection object at 0x7f53ac159640>: Failed to establish a new connection: [Errno -3] Temporary failure in name resolution'))
Could not get event information.
  HTTPSConnectionPool(host='re-volt.io', port=443): Max retries exceeded with url: /events-data (Caused by NewConnectionError('<urllib3.connection.HTTPSConnection object at 0x7f53ac17ccd0>: Failed to establish a new connection: [Errno -3] Temporary failure in name resolution'))
Updating event info... Done!
Could not get repository information.
  HTTPSConnectionPool(host='distribute.re-volt.io', port=443): Max retries exceeded with url: /repos/ (Caused by NewConnectionError('<urllib3.connection.HTTPSConnection object at 0x7f53ac332610>: Failed to establish a new connection: [Errno -3] Temporary failure in name resolution'))
Adding local package arm_corticircuiti...
Adding local package arm_devdemo...
Adding local package arm_seriearm21...
Adding local package arm_skins...
Adding local package arm_tracks...
Adding local package drift_cars...
Adding local package local...
Adding local package no-repo-trackpack...
Adding local package rlcars...
Adding local package twc-week1...
Adding local package twc-week2...
Updating pack info... Done!
Updating pack info...
Updating event info...
Could not fetch package list.
  HTTPSConnectionPool(host='distribute.re-volt.io', port=443): Max retries exceeded with url: /packages.json (Caused by NewConnectionError('<urllib3.connection.HTTPSConnection object at 0x7f53ac159550>: Failed to establish a new connection: [Errno -3] Temporary failure in name resolution'))
Could not get event information.
  HTTPSConnectionPool(host='re-volt.io', port=443): Max retries exceeded with url: /events-data (Caused by NewConnectionError('<urllib3.connection.HTTPSConnection object at 0x7f53ac17cee0>: Failed to establish a new connection: [Errno -3] Temporary failure in name resolution'))
Updating event info... Done!
Could not get repository information.
  HTTPSConnectionPool(host='distribute.re-volt.io', port=443): Max retries exceeded with url: /repos/ (Caused by NewConnectionError('<urllib3.connection.HTTPSConnection object at 0x7f53afa3ee20>: Failed to establish a new connection: [Errno -3] Temporary failure in name resolution'))
Adding local package arm_corticircuiti...
Adding local package arm_devdemo...
Adding local package arm_seriearm21...
Adding local package arm_skins...
Adding local package arm_tracks...
Adding local package drift_cars...
Adding local package local...
Adding local package no-repo-trackpack...
Adding local package rlcars...
Adding local package twc-week1...
Adding local package twc-week2...
Updating pack info... Done!
Updating pack info...
Updating event info...
Could not fetch package list.
  HTTPSConnectionPool(host='distribute.re-volt.io', port=443): Max retries exceeded with url: /packages.json (Caused by NewConnectionError('<urllib3.connection.HTTPSConnection object at 0x7f53ac1592b0>: Failed to establish a new connection: [Errno -3] Temporary failure in name resolution'))
Could not get event information.
  HTTPSConnectionPool(host='re-volt.io', port=443): Max retries exceeded with url: /events-data (Caused by NewConnectionError('<urllib3.connection.HTTPSConnection object at 0x7f53ac17ce80>: Failed to establish a new connection: [Errno -3] Temporary failure in name resolution'))
Updating event info... Done!
Could not get repository information.
  HTTPSConnectionPool(host='distribute.re-volt.io', port=443): Max retries exceeded with url: /repos/ (Caused by NewConnectionError('<urllib3.connection.HTTPSConnection object at 0x7f53afa46730>: Failed to establish a new connection: [Errno -3] Temporary failure in name resolution'))
Adding local package arm_corticircuiti...
Adding local package arm_devdemo...
Adding local package arm_seriearm21...
Adding local package arm_skins...
Adding local package arm_tracks...
Adding local package drift_cars...
Adding local package local...
Adding local package no-repo-trackpack...
Adding local package rlcars...
Adding local package twc-week1...
Adding local package twc-week2...
Updating pack info... Done!
Updating pack info...
Updating event info...
Could not fetch package list.
  HTTPSConnectionPool(host='distribute.re-volt.io', port=443): Max retries exceeded with url: /packages.json (Caused by NewConnectionError('<urllib3.connection.HTTPSConnection object at 0x7f53ac1596d0>: Failed to establish a new connection: [Errno -3] Temporary failure in name resolution'))
Could not get event information.
  HTTPSConnectionPool(host='re-volt.io', port=443): Max retries exceeded with url: /events-data (Caused by NewConnectionError('<urllib3.connection.HTTPSConnection object at 0x7f53ac17cbb0>: Failed to establish a new connection: [Errno -3] Temporary failure in name resolution'))
Updating event info... Done!
Could not get repository information.
  HTTPSConnectionPool(host='distribute.re-volt.io', port=443): Max retries exceeded with url: /repos/ (Caused by NewConnectionError('<urllib3.connection.HTTPSConnection object at 0x7f53afa46730>: Failed to establish a new connection: [Errno -3] Temporary failure in name resolution'))
Adding local package arm_corticircuiti...
Adding local package arm_devdemo...
Adding local package arm_seriearm21...
Adding local package arm_skins...
Adding local package arm_tracks...
Adding local package drift_cars...
Adding local package local...
Adding local package no-repo-trackpack...
Adding local package rlcars...
Adding local package twc-week1...
Adding local package twc-week2...
Updating pack info... Done!
Updating pack info...
Updating event info...
Could not fetch package list.
  HTTPSConnectionPool(host='distribute.re-volt.io', port=443): Max retries exceeded with url: /packages.json (Caused by NewConnectionError('<urllib3.connection.HTTPSConnection object at 0x7f53ac1592b0>: Failed to establish a new connection: [Errno -3] Temporary failure in name resolution'))
Could not get event information.
  HTTPSConnectionPool(host='re-volt.io', port=443): Max retries exceeded with url: /events-data (Caused by NewConnectionError('<urllib3.connection.HTTPSConnection object at 0x7f53ac17cd00>: Failed to establish a new connection: [Errno -3] Temporary failure in name resolution'))
Updating event info... Done!
Could not get repository information.
  HTTPSConnectionPool(host='distribute.re-volt.io', port=443): Max retries exceeded with url: /repos/ (Caused by NewConnectionError('<urllib3.connection.HTTPSConnection object at 0x7f53afa3ed00>: Failed to establish a new connection: [Errno -3] Temporary failure in name resolution'))
Adding local package arm_corticircuiti...
Adding local package arm_devdemo...
Adding local package arm_seriearm21...
Adding local package arm_skins...
Adding local package arm_tracks...
Adding local package drift_cars...
Adding local package local...
Adding local package no-repo-trackpack...
Adding local package rlcars...
Adding local package twc-week1...
Adding local package twc-week2...
Updating pack info... Done!
Updating pack info...
Updating event info...
Could not fetch package list.
  HTTPSConnectionPool(host='distribute.re-volt.io', port=443): Max retries exceeded with url: /packages.json (Caused by NewConnectionError('<urllib3.connection.HTTPSConnection object at 0x7f53ac159550>: Failed to establish a new connection: [Errno -3] Temporary failure in name resolution'))
Could not get event information.
  HTTPSConnectionPool(host='re-volt.io', port=443): Max retries exceeded with url: /events-data (Caused by NewConnectionError('<urllib3.connection.HTTPSConnection object at 0x7f53ac17c9a0>: Failed to establish a new connection: [Errno -3] Temporary failure in name resolution'))
Updating event info... Done!
Could not get repository information.
  HTTPSConnectionPool(host='distribute.re-volt.io', port=443): Max retries exceeded with url: /repos/ (Caused by NewConnectionError('<urllib3.connection.HTTPSConnection object at 0x7f53afa3eee0>: Failed to establish a new connection: [Errno -3] Temporary failure in name resolution'))
Adding local package arm_corticircuiti...
Adding local package arm_devdemo...
Adding local package arm_seriearm21...
Adding local package arm_skins...
Adding local package arm_tracks...
Adding local package drift_cars...
Adding local package local...
Adding local package no-repo-trackpack...
Adding local package rlcars...
Adding local package twc-week1...
Adding local package twc-week2...
Updating pack info... Done!
Updating pack info...
Updating event info...
Could not get event information.
  HTTPSConnectionPool(host='re-volt.io', port=443): Max retries exceeded with url: /events-data (Caused by NewConnectionError('<urllib3.connection.HTTPSConnection object at 0x7f53ac17c0a0>: Failed to establish a new connection: [Errno -3] Temporary failure in name resolution'))
Could not fetch package list.
  HTTPSConnectionPool(host='distribute.re-volt.io', port=443): Max retries exceeded with url: /packages.json (Caused by NewConnectionError('<urllib3.connection.HTTPSConnection object at 0x7f53ac159ee0>: Failed to establish a new connection: [Errno -3] Temporary failure in name resolution'))
Updating event info... Done!
Could not get repository information.
  HTTPSConnectionPool(host='distribute.re-volt.io', port=443): Max retries exceeded with url: /repos/ (Caused by NewConnectionError('<urllib3.connection.HTTPSConnection object at 0x7f53afa3ed00>: Failed to establish a new connection: [Errno -3] Temporary failure in name resolution'))
Adding local package arm_corticircuiti...
Adding local package arm_devdemo...
Adding local package arm_seriearm21...
Adding local package arm_skins...
Adding local package arm_tracks...
Adding local package drift_cars...
Adding local package local...
Adding local package no-repo-trackpack...
Adding local package rlcars...
Adding local package twc-week1...
Adding local package twc-week2...
Updating pack info... Done!
Updating pack info...
Updating event info...
Could not fetch package list.
  HTTPSConnectionPool(host='distribute.re-volt.io', port=443): Max retries exceeded with url: /packages.json (Caused by NewConnectionError('<urllib3.connection.HTTPSConnection object at 0x7f53ac159730>: Failed to establish a new connection: [Errno -3] Temporary failure in name resolution'))
Could not get event information.
  HTTPSConnectionPool(host='re-volt.io', port=443): Max retries exceeded with url: /events-data (Caused by NewConnectionError('<urllib3.connection.HTTPSConnection object at 0x7f53ac17cee0>: Failed to establish a new connection: [Errno -3] Temporary failure in name resolution'))
Updating event info... Done!
Could not get repository information.
  HTTPSConnectionPool(host='distribute.re-volt.io', port=443): Max retries exceeded with url: /repos/ (Caused by NewConnectionError('<urllib3.connection.HTTPSConnection object at 0x7f53afa3ee80>: Failed to establish a new connection: [Errno -3] Temporary failure in name resolution'))
Adding local package arm_corticircuiti...
Adding local package arm_devdemo...
Adding local package arm_seriearm21...
Adding local package arm_skins...
Adding local package arm_tracks...
Adding local package drift_cars...
Adding local package local...
Adding local package no-repo-trackpack...
Adding local package rlcars...
Adding local package twc-week1...
Adding local package twc-week2...
Updating pack info... Done!
Updating pack info...
Updating event info...
Could not fetch package list.
  HTTPSConnectionPool(host='distribute.re-volt.io', port=443): Max retries exceeded with url: /packages.json (Caused by NewConnectionError('<urllib3.connection.HTTPSConnection object at 0x7f53ac159df0>: Failed to establish a new connection: [Errno -3] Temporary failure in name resolution'))
Could not get event information.
  HTTPSConnectionPool(host='re-volt.io', port=443): Max retries exceeded with url: /events-data (Caused by NewConnectionError('<urllib3.connection.HTTPSConnection object at 0x7f53ac17ccd0>: Failed to establish a new connection: [Errno -3] Temporary failure in name resolution'))
Updating event info... Done!
Could not get repository information.
  HTTPSConnectionPool(host='distribute.re-volt.io', port=443): Max retries exceeded with url: /repos/ (Caused by NewConnectionError('<urllib3.connection.HTTPSConnection object at 0x7f53ac332bb0>: Failed to establish a new connection: [Errno -3] Temporary failure in name resolution'))
Adding local package arm_corticircuiti...
Adding local package arm_devdemo...
Adding local package arm_seriearm21...
Adding local package arm_skins...
Adding local package arm_tracks...
Adding local package drift_cars...
Adding local package local...
Adding local package no-repo-trackpack...
Adding local package rlcars...
Adding local package twc-week1...
Adding local package twc-week2...
Updating pack info... Done!
Updating pack info...
Updating event info...
Could not get event information.
  HTTPSConnectionPool(host='re-volt.io', port=443): Max retries exceeded with url: /events-data (Caused by NewConnectionError('<urllib3.connection.HTTPSConnection object at 0x7f53ac17c550>: Failed to establish a new connection: [Errno -3] Temporary failure in name resolution'))
Could not fetch package list.
  HTTPSConnectionPool(host='distribute.re-volt.io', port=443): Max retries exceeded with url: /packages.json (Caused by NewConnectionError('<urllib3.connection.HTTPSConnection object at 0x7f53ac159640>: Failed to establish a new connection: [Errno -3] Temporary failure in name resolution'))
Updating event info... Done!
Could not get repository information.
  HTTPSConnectionPool(host='distribute.re-volt.io', port=443): Max retries exceeded with url: /repos/ (Caused by NewConnectionError('<urllib3.connection.HTTPSConnection object at 0x7f53ac332bb0>: Failed to establish a new connection: [Errno -3] Temporary failure in name resolution'))
Adding local package arm_corticircuiti...
Adding local package arm_devdemo...
Adding local package arm_seriearm21...
Adding local package arm_skins...
Adding local package arm_tracks...
Adding local package drift_cars...
Adding local package local...
Adding local package no-repo-trackpack...
Adding local package rlcars...
Adding local package twc-week1...
Adding local package twc-week2...
Updating pack info... Done!
Updating pack info...
Updating event info...
Could not get event information.
  HTTPSConnectionPool(host='re-volt.io', port=443): Max retries exceeded with url: /events-data (Caused by NewConnectionError('<urllib3.connection.HTTPSConnection object at 0x7f53ac17ccd0>: Failed to establish a new connection: [Errno -3] Temporary failure in name resolution'))
Could not fetch package list.
  HTTPSConnectionPool(host='distribute.re-volt.io', port=443): Max retries exceeded with url: /packages.json (Caused by NewConnectionError('<urllib3.connection.HTTPSConnection object at 0x7f53ac1592b0>: Failed to establish a new connection: [Errno -3] Temporary failure in name resolution'))
Updating event info... Done!
Could not get repository information.
  HTTPSConnectionPool(host='distribute.re-volt.io', port=443): Max retries exceeded with url: /repos/ (Caused by NewConnectionError('<urllib3.connection.HTTPSConnection object at 0x7f53ac332eb0>: Failed to establish a new connection: [Errno -3] Temporary failure in name resolution'))
Adding local package arm_corticircuiti...
Adding local package arm_devdemo...
Adding local package arm_seriearm21...
Adding local package arm_skins...
Adding local package arm_tracks...
Adding local package drift_cars...
Adding local package local...
Adding local package no-repo-trackpack...
Adding local package rlcars...
Adding local package twc-week1...
Adding local package twc-week2...
Updating pack info... Done!
Updating pack info...
Updating event info...
Could not fetch package list.
  HTTPSConnectionPool(host='distribute.re-volt.io', port=443): Max retries exceeded with url: /packages.json (Caused by NewConnectionError('<urllib3.connection.HTTPSConnection object at 0x7f53ac159e50>: Failed to establish a new connection: [Errno -3] Temporary failure in name resolution'))
Could not get event information.
  HTTPSConnectionPool(host='re-volt.io', port=443): Max retries exceeded with url: /events-data (Caused by NewConnectionError('<urllib3.connection.HTTPSConnection object at 0x7f53ac17c1c0>: Failed to establish a new connection: [Errno -3] Temporary failure in name resolution'))
Updating event info... Done!
Could not get repository information.
  HTTPSConnectionPool(host='distribute.re-volt.io', port=443): Max retries exceeded with url: /repos/ (Caused by NewConnectionError('<urllib3.connection.HTTPSConnection object at 0x7f53ac332eb0>: Failed to establish a new connection: [Errno -3] Temporary failure in name resolution'))
Adding local package arm_corticircuiti...
Adding local package arm_devdemo...
Adding local package arm_seriearm21...
Adding local package arm_skins...
Adding local package arm_tracks...
Adding local package drift_cars...
Adding local package local...
Adding local package no-repo-trackpack...
Adding local package rlcars...
Adding local package twc-week1...
Adding local package twc-week2...
Updating pack info... Done!
Updating pack info...
Updating event info...
Could not get event information.
  HTTPSConnectionPool(host='re-volt.io', port=443): Max retries exceeded with url: /events-data (Caused by NewConnectionError('<urllib3.connection.HTTPSConnection object at 0x7f53ac17c580>: Failed to establish a new connection: [Errno -3] Temporary failure in name resolution'))
Could not fetch package list.
  HTTPSConnectionPool(host='distribute.re-volt.io', port=443): Max retries exceeded with url: /packages.json (Caused by NewConnectionError('<urllib3.connection.HTTPSConnection object at 0x7f53ac159b20>: Failed to establish a new connection: [Errno -3] Temporary failure in name resolution'))
Updating event info... Done!
Could not get repository information.
  HTTPSConnectionPool(host='distribute.re-volt.io', port=443): Max retries exceeded with url: /repos/ (Caused by NewConnectionError('<urllib3.connection.HTTPSConnection object at 0x7f53ac332eb0>: Failed to establish a new connection: [Errno -3] Temporary failure in name resolution'))
Adding local package arm_corticircuiti...
Adding local package arm_devdemo...
Adding local package arm_seriearm21...
Adding local package arm_skins...
Adding local package arm_tracks...
Adding local package drift_cars...
Adding local package local...
Adding local package no-repo-trackpack...
Adding local package rlcars...
Adding local package twc-week1...
Adding local package twc-week2...
Updating pack info... Done!
Updating pack info...
Updating event info...
Could not fetch package list.
  HTTPSConnectionPool(host='distribute.re-volt.io', port=443): Max retries exceeded with url: /packages.json (Caused by NewConnectionError('<urllib3.connection.HTTPSConnection object at 0x7f53ac159af0>: Failed to establish a new connection: [Errno -3] Temporary failure in name resolution'))
Could not get event information.
  HTTPSConnectionPool(host='re-volt.io', port=443): Max retries exceeded with url: /events-data (Caused by NewConnectionError('<urllib3.connection.HTTPSConnection object at 0x7f53ac17c3a0>: Failed to establish a new connection: [Errno -3] Temporary failure in name resolution'))
Updating event info... Done!
Could not get repository information.
  HTTPSConnectionPool(host='distribute.re-volt.io', port=443): Max retries exceeded with url: /repos/ (Caused by NewConnectionError('<urllib3.connection.HTTPSConnection object at 0x7f53afa46700>: Failed to establish a new connection: [Errno -3] Temporary failure in name resolution'))
Adding local package arm_corticircuiti...
Adding local package arm_devdemo...
Adding local package arm_seriearm21...
Adding local package arm_skins...
Adding local package arm_tracks...
Adding local package drift_cars...
Adding local package local...
Adding local package no-repo-trackpack...
Adding local package rlcars...
Adding local package twc-week1...
Adding local package twc-week2...
Updating pack info... Done!
Updating pack info...
Updating event info...
Could not fetch package list.
  HTTPSConnectionPool(host='distribute.re-volt.io', port=443): Max retries exceeded with url: /packages.json (Caused by NewConnectionError('<urllib3.connection.HTTPSConnection object at 0x7f53ac159eb0>: Failed to establish a new connection: [Errno -3] Temporary failure in name resolution'))
Could not get event information.
  HTTPSConnectionPool(host='re-volt.io', port=443): Max retries exceeded with url: /events-data (Caused by NewConnectionError('<urllib3.connection.HTTPSConnection object at 0x7f53ac17c3d0>: Failed to establish a new connection: [Errno -3] Temporary failure in name resolution'))
Updating event info... Done!
Could not get repository information.
  HTTPSConnectionPool(host='distribute.re-volt.io', port=443): Max retries exceeded with url: /repos/ (Caused by NewConnectionError('<urllib3.connection.HTTPSConnection object at 0x7f53afa461f0>: Failed to establish a new connection: [Errno -3] Temporary failure in name resolution'))
Adding local package arm_corticircuiti...
Adding local package arm_devdemo...
Adding local package arm_seriearm21...
Adding local package arm_skins...
Adding local package arm_tracks...
Adding local package drift_cars...
Adding local package local...
Adding local package no-repo-trackpack...
Adding local package rlcars...
Adding local package twc-week1...
Adding local package twc-week2...
Updating pack info... Done!
